Return-Path: <matt@apisnetworks.com>
X-Spam-Checker-Version: SpamAssassin 3.4.0 (2014-02-07) on
	image.apisnetworks.com
X-Spam-Level: 
X-Spam-ASN: AS36351 50.116.16.0/20
X-Spam-Status: No, score=0.2 required=5.0 tests=AWL,BAYES_00,HTML_MESSAGE,
	RP_MATCHES_RCVD shortcircuit=no autolearn=no autolearn_force=no version=3.4.0
X-Original-To: matt@apisnetworks.com
Delivered-To: matt@apisnetworks.com
Received: from sputnik.apisnetworks.com (sputnik.apisnetworks.com [50.116.18.181])
	by image.apisnetworks.com (Postfix) with ESMTP id 32CA7197D457
	for <matt@apisnetworks.com>; Wed, 28 May 2014 10:18:29 -0400 (EDT)
Message-ID: <5385F036.5010309@apisnetworks.com>
DKIM-Signature: v=1; a=rsa-sha256; c=relaxed/relaxed; d=apisnetworks.com;
	s=dkim; t=1401286709;
	bh=q1PBn56aWhZMuUATW3RgVWMs57IrlNsvWciwpjlTHkI=;
	h=Date:From:MIME-Version:To:Subject:References:In-Reply-To:
	 Content-Type;
	b=CkWo4/q3v+xUSuykzoWfJa5n0CH241Kq1BnGF9M4zMVKEXmef8wqs4bofpIxo2Yx4
	 zQ4Fkcl3aAvwwhEoiDOACv5R1PqmN2b9ZwxGwLv9jAhmG8hOCC+t/PPYi2W9s0Na1k
	 9++lAiFnqO/97XLiIKdy1oN0yEgdIl1D/E+MGPXU=
Date: Wed, 28 May 2014 10:18:30 -0400
From: Matt Saladna <matt@apisnetworks.com>
User-Agent: Mozilla/5.0 (Windows NT 6.1; WOW64; rv:24.0) Gecko/20100101 Thunderbird/24.5.0
MIME-Version: 1.0
To: ham@apisnetworks.com
Subject: Fwd: [SPAM] (6.3) (BAJ) Your turn!
References: <20140526040015.11026.qmail@ns213156.ovh.net>
In-Reply-To: <20140526040015.11026.qmail@ns213156.ovh.net>
X-Forwarded-Message-Id: <20140526040015.11026.qmail@ns213156.ovh.net>
Content-Type: multipart/mixed;
 boundary="------------070806060606000803010904"

This is a multi-part message in MIME format.
--------------070806060606000803010904
Content-Type: text/plain; charset=UTF-8; format=flowed
Content-Transfer-Encoding: 7bit


-- 
- Matt

--------------070806060606000803010904
Content-Type: message/rfc822;
 name="[SPAM] (6_3) (BAJ) Your turn!"
Content-Transfer-Encoding: 7bit
Content-Disposition: attachment;
 filename="[SPAM] (6_3) (BAJ) Your turn!"

Return-Path: <root@ns213156.ovh.net>
X-Spam-Checker-Version: SpamAssassin 3.4.0 (2014-02-07) on
	image.apisnetworks.com
X-Spam-Flag: YES
X-Spam-Level: ******
X-Spam-ASN: AS16276 188.165.0.0/16
X-Spam-Status: Yes, score=6.3 required=5.0 tests=AWL,BAYES_99,BAYES_999,
	HEADER_FROM_DIFFERENT_DOMAINS,HTML_MESSAGE,MIME_HTML_ONLY,RCVD_IN_MSPIKE_H3,
	RCVD_IN_MSPIKE_WL,RP_MATCHES_RCVD shortcircuit=no autolearn=no
	autolearn_force=no version=3.4.0
X-Spam-Report: 
	*  7.0 BAYES_99 BODY: Bayes spam probability is 99 to 100%
	*      [score: 1.0000]
	* -0.0 RCVD_IN_MSPIKE_H3 RBL: Good reputation (+3)
	*      [188.165.225.228 listed in wl.mailspike.net]
	*  0.0 HEADER_FROM_DIFFERENT_DOMAINS From and EnvelopeFrom 2nd level mail
	*      domains are different
	* -0.7 RP_MATCHES_RCVD Envelope sender domain matches handover relay domain
	*  0.2 BAYES_999 BODY: Bayes spam probability is 99.9 to 100%
	*      [score: 1.0000]
	*  0.0 HTML_MESSAGE BODY: HTML included in message
	*  0.7 MIME_HTML_ONLY BODY: Message only has text/html MIME parts
	* -0.0 RCVD_IN_MSPIKE_WL Mailspike good senders
	* -1.0 AWL AWL: From: address is in the auto white-list
X-Spam-Score: 6.3
X-Original-To: msaladna@apisnetworks.com
Delivered-To: msaladna@apisnetworks.com
Received: from ns213156.ovh.net (ns213156.ovh.net [188.165.225.228])
	by image.apisnetworks.com (Postfix) with ESMTP id DC850197C010
	for <msaladna@apisnetworks.com>; Mon, 26 May 2014 00:04:04 -0400 (EDT)
Received: (qmail 11027 invoked by uid 0); 26 May 2014 04:00:15 -0000
Date: 26 May 2014 04:00:15 -0000
Message-ID: <20140526040015.11026.qmail@ns213156.ovh.net>
To: msaladna@apisnetworks.com
Subject: [SPAM] (6.3) (BAJ) Your turn!
From: robot@boiteajeux.net
Reply-To: robot@boiteajeux.net
X-Mailer: PHP/5.2.17
MIME-Version: 1.0
Content-Type: text/html; charset=utf-8
Content-Transfer-Encoding: 8bit
X-Spam-Prev-Subject: (BAJ) Your turn!

<!DOCTYPE HTML><html><head><meta http-equiv="Content-Type" content="text/html; charset=utf-8" /><title>www.boiteajeux.net</title></head><body>This email was sent by www.boiteajeux.net.<br>
It's your turn in the following game(s) :<br><br>
DIE BURGEN VON BURGUND
<a href="http://www.boiteajeux.net/jeux/cdb/partie.php?id=93996">Game #93996</a>
<br>
Don't answer this message, it was sent by a robot.<br>
<br>The BAJ team.<br>
<a href="http://www.boiteajeux.net">http://www.boiteajeux.net</a><br></body></html>

--------------070806060606000803010904--
